<?xml version="1.0" encoding="UTF-8" standalone="no"?>
<!-- Created with Inkscape (http://www.inkscape.org/) -->

<svg
   xmlns:dc="http://purl.org/dc/elements/1.1/"
   xmlns:cc="http://creativecommons.org/ns#"
   xmlns:rdf="http://www.w3.org/1999/02/22-rdf-syntax-ns#"
   xmlns:svg="http://www.w3.org/2000/svg"
   xmlns="http://www.w3.org/2000/svg"
   xmlns:sodipodi="http://sodipodi.sourceforge.net/DTD/sodipodi-0.dtd"
   xmlns:inkscape="http://www.inkscape.org/namespaces/inkscape"
   width="24.25"
   height="24.25"
   viewBox="0 0 6.4161458 6.416146"
   version="1.1"
   id="svg8"
   inkscape:version="0.92.2 5c3e80d, 2017-08-06"
   sodipodi:docname="gasny.svg">
  <defs
     id="defs2" />
  <sodipodi:namedview
     id="base"
     pagecolor="#ffffff"
     bordercolor="#666666"
     borderopacity="1.0"
     inkscape:pageopacity="0.0"
     inkscape:pageshadow="2"
     inkscape:zoom="62.618557"
     inkscape:cx="6.6463759"
     inkscape:cy="11.824836"
     inkscape:document-units="px"
     inkscape:current-layer="layer1"
     showgrid="true"
     inkscape:window-width="3840"
     inkscape:window-height="2031"
     inkscape:window-x="0"
     inkscape:window-y="55"
     inkscape:window-maximized="1"
     units="px"
     showguides="true"
     inkscape:guide-bbox="true"
     fit-margin-top="4"
     fit-margin-left="8"
     fit-margin-right="8"
     fit-margin-bottom="4">
    <inkscape:grid
       type="xygrid"
       id="grid4523"
       dotted="false"
       empspacing="4"
       color="#dd3fff"
       opacity="0.21176471"
       empcolor="#3fdf1b"
       empopacity="0.85098039"
       originx="-6.3169269"
       originy="-20.075261" />
    <sodipodi:guide
       position="0.033073036,1.0914064"
       orientation="1,0"
       id="guide4525"
       inkscape:locked="false" />
    <sodipodi:guide
       position="-7.3752603,0.033072356"
       orientation="0,1"
       id="guide4527"
       inkscape:locked="false" />
    <sodipodi:guide
       position="6.3830731,7.1768234"
       orientation="1,0"
       id="guide4529"
       inkscape:locked="false" />
    <sodipodi:guide
       position="-3.4065104,-6.3169267"
       orientation="0,1"
       id="guide4531"
       inkscape:locked="false" />
    <sodipodi:guide
       position="12.733073,-2.3481767"
       orientation="1,0"
       id="guide4533"
       inkscape:locked="false" />
    <sodipodi:guide
       position="-3.4065104,6.3830734"
       orientation="0,1"
       id="guide4535"
       inkscape:locked="false" />
    <sodipodi:guide
       position="-6.316927,1.3559904"
       orientation="1,0"
       id="guide4537"
       inkscape:locked="false" />
  </sodipodi:namedview>
  <metadata
     id="metadata5">
    <rdf:RDF>
      <cc:Work
         rdf:about="">
        <dc:format>image/svg+xml</dc:format>
        <dc:type
           rdf:resource="http://purl.org/dc/dcmitype/StillImage" />
        <dc:title />
      </cc:Work>
    </rdf:RDF>
  </metadata>
  <g
     inkscape:label="Layer 1"
     inkscape:groupmode="layer"
     id="layer1"
     transform="translate(-6.316927,-270.50858)">
    <path
       id="path2648"
       d="m 9.5249999,271.59998 a 1.0583333,1.0583333 0 0 0 -1.0583333,1.05834 1.0583333,1.0583333 0 0 0 0.79375,1.02319 v 2.15181 h 0.5291666 v -2.15129 a 1.0583333,1.0583333 0 0 0 0.7937498,-1.02371 1.0583333,1.0583333 0 0 0 -1.0583331,-1.05834 z"
       style="fill:none;fill-opacity:1;stroke:none;stroke-width:0.06614583;stroke-miterlimit:4;stroke-dasharray:none;stroke-dashoffset:0;stroke-opacity:1"
       inkscape:connector-curvature="0" />
    <path
       style="fill:#ffffff;fill-opacity:1;stroke:#666666;stroke-width:0.21166667;stroke-miterlimit:4;stroke-dasharray:none;stroke-dashoffset:0;stroke-opacity:1"
       d="m 9.4919306,270.90773 a 0.989917,0.94733579 0 0 0 -0.9899171,0.9473 0.989917,0.94733579 0 0 0 0.7424374,0.9159 v 3.82079 h 0.4949596 v -3.81986 a 0.989917,0.94733579 0 0 0 0.7424305,-0.91683 0.989917,0.94733579 0 0 0 -0.9899104,-0.9473 z"
       id="rect832"
       inkscape:connector-curvature="0" />
  </g>
</svg>
