<?xml version="1.0" encoding="UTF-8" standalone="no"?>
<!-- Created with Inkscape (http://www.inkscape.org/) -->

<svg
   xmlns:dc="http://purl.org/dc/elements/1.1/"
   xmlns:cc="http://creativecommons.org/ns#"
   xmlns:rdf="http://www.w3.org/1999/02/22-rdf-syntax-ns#"
   xmlns:svg="http://www.w3.org/2000/svg"
   xmlns="http://www.w3.org/2000/svg"
   xmlns:sodipodi="http://sodipodi.sourceforge.net/DTD/sodipodi-0.dtd"
   xmlns:inkscape="http://www.inkscape.org/namespaces/inkscape"
   width="24.009806"
   height="24.249975"
   viewBox="0 0 6.3525944 6.4161394"
   version="1.1"
   id="svg8"
   inkscape:version="0.92.2 5c3e80d, 2017-08-06"
   sodipodi:docname="maudetour.svg">
  <defs
     id="defs2" />
  <sodipodi:namedview
     id="base"
     pagecolor="#ffffff"
     bordercolor="#666666"
     borderopacity="1.0"
     inkscape:pageopacity="0.0"
     inkscape:pageshadow="2"
     inkscape:zoom="63.356768"
     inkscape:cx="2.1689338"
     inkscape:cy="12.23197"
     inkscape:document-units="px"
     inkscape:current-layer="layer1"
     showgrid="true"
     inkscape:window-width="3840"
     inkscape:window-height="2031"
     inkscape:window-x="0"
     inkscape:window-y="55"
     inkscape:window-maximized="1"
     units="px"
     showguides="true"
     inkscape:guide-bbox="true"
     fit-margin-top="2"
     fit-margin-left="9"
     fit-margin-right="9"
     fit-margin-bottom="2">
    <inkscape:grid
       type="xygrid"
       id="grid4523"
       dotted="false"
       empspacing="4"
       color="#dd3fff"
       opacity="0.21176471"
       empcolor="#3fdf1b"
       empopacity="0.85098039"
       originx="-27.778655"
       originy="-40.679693" />
    <sodipodi:guide
       position="-6.3487031,1.0914073"
       orientation="1,0"
       id="guide4525"
       inkscape:locked="false" />
    <sodipodi:guide
       position="-13.757036,0.033073316"
       orientation="0,1"
       id="guide4527"
       inkscape:locked="false" />
    <sodipodi:guide
       position="0.001296886,7.1768243"
       orientation="1,0"
       id="guide4529"
       inkscape:locked="false" />
    <sodipodi:guide
       position="-9.7882858,-6.3169257"
       orientation="0,1"
       id="guide4531"
       inkscape:locked="false" />
    <sodipodi:guide
       position="6.3512969,-2.3481757"
       orientation="1,0"
       id="guide4533"
       inkscape:locked="false" />
    <sodipodi:guide
       position="-9.7882858,6.3830743"
       orientation="0,1"
       id="guide4535"
       inkscape:locked="false" />
    <sodipodi:guide
       position="-12.698703,1.3559913"
       orientation="1,0"
       id="guide4537"
       inkscape:locked="false" />
  </sodipodi:namedview>
  <metadata
     id="metadata5">
    <rdf:RDF>
      <cc:Work
         rdf:about="">
        <dc:format>image/svg+xml</dc:format>
        <dc:type
           rdf:resource="http://purl.org/dc/dcmitype/StillImage" />
        <dc:title />
      </cc:Work>
    </rdf:RDF>
  </metadata>
  <g
     inkscape:label="Layer 1"
     inkscape:groupmode="layer"
     id="layer1"
     transform="translate(-12.698703,-270.50858)">
    <rect
       style="fill:#666666;fill-opacity:1;stroke:none;stroke-width:0.04677211;stroke-miterlimit:4;stroke-dasharray:none;stroke-dashoffset:0;stroke-opacity:1"
       id="rect833"
       width="0.26458269"
       height="5.8208337"
       x="15.611715"
       y="270.77316" />
    <rect
       y="273.94815"
       x="15.611715"
       height="0.52916664"
       width="0.26458266"
       id="rect4612"
       style="fill:#ffffff;fill-opacity:1;stroke:none;stroke-width:0.07071059;stroke-miterlimit:4;stroke-dasharray:none;stroke-dashoffset:0;stroke-opacity:0.2857143" />
    <rect
       style="fill:#ffffff;fill-opacity:1;stroke:none;stroke-width:0.07071059;stroke-miterlimit:4;stroke-dasharray:none;stroke-dashoffset:0;stroke-opacity:0.2857143"
       id="rect4614"
       width="0.26458266"
       height="0.52916664"
       x="15.611715"
       y="271.83148" />
    <rect
       style="fill:#666666;fill-opacity:1;stroke:none;stroke-width:0.05546509;stroke-miterlimit:4;stroke-dasharray:none;stroke-dashoffset:0;stroke-opacity:1"
       id="rect835"
       width="0.88744146"
       height="0.88744146"
       x="316.26611"
       y="298.66376"
       transform="matrix(0.89442597,0.44721603,-0.89442597,0.44721603,0,0)" />
    <rect
       style="fill:#666666;fill-opacity:1;stroke:none;stroke-width:0.07395326;stroke-miterlimit:4;stroke-dasharray:none;stroke-dashoffset:0;stroke-opacity:1"
       id="rect837"
       width="0.59162617"
       height="0.59162617"
       x="311.827"
       y="294.2247"
       transform="matrix(0.89442923,0.44720951,-0.89442923,0.44720951,0,0)"
       inkscape:transform-center-y="0.36910143"
       inkscape:transform-center-x="-1.4014266e-06" />
    <rect
       style="fill:#ffffff;fill-opacity:1;stroke:none;stroke-width:0.07071059;stroke-miterlimit:4;stroke-dasharray:none;stroke-dashoffset:0;stroke-opacity:0.2857143"
       id="rect839"
       width="0.26458266"
       height="0.52916664"
       x="15.611715"
       y="272.88983" />
  </g>
</svg>
