{
    "type": "FeatureCollection",
    "features": [
        {
            "type": "Feature",
            "geometry": {
                "type": "Point",
                "coordinates": [
                    1.3990,
                    49.2365
                ]
            },
            "properties": {
                "orientation": 0,
                "place": "Vernon"
            }
        },
        {
            "type": "Feature",
            "geometry": {
                "type": "Point",
                "coordinates": [
                    1.4879,
                    49.0956
                ]
            },
            "properties": {
                "orientation": -60,
                "place": "Vernon"
            }
        },
        {
            "type": "Feature",
            "geometry": {
                "type": "Point",
                "coordinates": [
                    1.3537,
                    49.1793
                ]
            },
            "properties": {
                "orientation": -60,
                "place": "Courcelles"
            }
        },
        {
            "type": "Feature",
            "geometry": {
                "type": "Point",
                "coordinates": [
                    1.5712,
                    49.0386
                ]
            },
            "properties": {
                "orientation": 70,
                "place": "Bonnières"
            }
        },
        {
            "type": "Feature",
            "geometry": {
                "type": "Point",
                "coordinates": [
                    1.7292,
                    48.9854
                ]
            },
            "properties": {
                "orientation": -20,
                "place": "Mantes"
            }
        },
        {
            "type": "Feature",
            "geometry": {
                "type": "Point",
                "coordinates": [
                    1.6171,
                    49.0286
                ]
            },
            "properties": {
                "orientation": -50,
                "place": "Méricourt",
                "lock": true
            }
        },
        {
            "type": "Feature",
            "geometry": {
                "type": "Point",
                "coordinates": [
                    1.3883,
                    49.1668
                ]
            },
            "properties": {
                "orientation": 30,
                "place": "Notre-Dame-de-la-Garenne",
                "lock": true
            }
        }
    ]
}
